sim/waveform.vcd
$version Generated by VerilatedVcd $end
$timescale 1ps $end
 $scope module TOP $end
  $var wire 1 P" clk $end
  $var wire 1 Q" resetn $end
  $var wire 1 R" trap $end
  $scope module system_top $end
   $var wire 1 P" clk $end
   $var wire 1 Q" resetn $end
   $var wire 1 R" trap $end
   $var wire 1 :" pcpi_valid $end
   $var wire 32 ;" pcpi_insn [31:0] $end
   $var wire 32 # pcpi_rs1 [31:0] $end
   $var wire 32 $ pcpi_rs2 [31:0] $end
   $var wire 1 3" pcpi_wr $end
   $var wire 32 4" pcpi_rd [31:0] $end
   $var wire 1 5" pcpi_wait $end
   $var wire 1 6" pcpi_ready $end
   $var wire 1 <" mem_valid $end
   $var wire 1 Z" mem_ready $end
   $scope module accelerator $end
    $var wire 1 P" clk $end
    $var wire 1 Q" resetn $end
    $var wire 1 :" pcpi_valid $end
    $var wire 32 ;" pcpi_insn [31:0] $end
    $var wire 32 # pcpi_rs1 [31:0] $end
    $var wire 32 $ pcpi_rs2 [31:0] $end
    $var wire 1 3" pcpi_wr $end
    $var wire 32 4" pcpi_rd [31:0] $end
    $var wire 1 5" pcpi_wait $end
    $var wire 1 6" pcpi_ready $end
    $var wire 7 =" opcode [6:0] $end
    $var wire 3 >" funct3 [2:0] $end
    $var wire 1 ?" is_custom_instr $end
    $var wire 1 @" is_relu_en $end
    $var wire 32 7" accumulator [31:0] $end
    $var wire 32 % product [31:0] $end
    $var wire 32 S" sum [31:0] $end
    $var wire 32 T" next_result [31:0] $end
   $upscope $end
   $scope module cpu $end
    $var wire 1 [" ENABLE_COUNTERS [0:0] $end
    $var wire 1 [" ENABLE_COUNTERS64 [0:0] $end
    $var wire 1 [" ENABLE_REGS_16_31 [0:0] $end
    $var wire 1 [" ENABLE_REGS_DUALPORT [0:0] $end
    $var wire 1 \" LATCHED_MEM_RDATA [0:0] $end
    $var wire 1 [" TWO_STAGE_SHIFT [0:0] $end
    $var wire 1 \" BARREL_SHIFTER [0:0] $end
    $var wire 1 \" TWO_CYCLE_COMPARE [0:0] $end
    $var wire 1 \" TWO_CYCLE_ALU [0:0] $end
    $var wire 1 \" COMPRESSED_ISA [0:0] $end
    $var wire 1 [" CATCH_MISALIGN [0:0] $end
    $var wire 1 [" CATCH_ILLINSN [0:0] $end
    $var wire 1 [" ENABLE_PCPI [0:0] $end
    $var wire 1 \" ENABLE_MUL [0:0] $end
    $var wire 1 \" ENABLE_FAST_MUL [0:0] $end
    $var wire 1 \" ENABLE_DIV [0:0] $end
    $var wire 1 \" ENABLE_IRQ [0:0] $end
    $var wire 1 [" ENABLE_IRQ_QREGS [0:0] $end
    $var wire 1 [" ENABLE_IRQ_TIMER [0:0] $end
    $var wire 1 \" ENABLE_TRACE [0:0] $end
    $var wire 1 \" REGS_INIT_ZERO [0:0] $end
    $var wire 32 ]" MASKED_IRQ [31:0] $end
    $var wire 32 ^" LATCHED_IRQ [31:0] $end
    $var wire 32 ]" PROGADDR_RESET [31:0] $end
    $var wire 32 _" PROGADDR_IRQ [31:0] $end
    $var wire 32 ^" STACKADDR [31:0] $end
    $var wire 1 P" clk $end
    $var wire 1 Q" resetn $end
    $var wire 1 R" trap $end
    $var wire 1 <" mem_valid $end
    $var wire 1 A" mem_instr $end
    $var wire 1 Z" mem_ready $end
    $var wire 32 & mem_addr [31:0] $end
    $var wire 32 ' mem_wdata [31:0] $end
    $var wire 4 B" mem_wstrb [3:0] $end
    $var wire 32 `" mem_rdata [31:0] $end
    $var wire 1 U" mem_la_read $end
    $var wire 1 V" mem_la_write $end
    $var wire 32 W" mem_la_addr [31:0] $end
    $var wire 32 ( mem_la_wdata [31:0] $end
    $var wire 4 C" mem_la_wstrb [3:0] $end
    $var wire 1 :" pcpi_valid $end
    $var wire 32 ;" pcpi_insn [31:0] $end
    $var wire 32 # pcpi_rs1 [31:0] $end
    $var wire 32 $ pcpi_rs2 [31:0] $end
    $var wire 1 3" pcpi_wr $end
    $var wire 32 4" pcpi_rd [31:0] $end
    $var wire 1 5" pcpi_wait $end
    $var wire 1 6" pcpi_ready $end
    $var wire 32 a" irq [31:0] $end
    $var wire 32 ) eoi [31:0] $end
    $var wire 1 * trace_valid $end
    $var wire 36 + trace_data [35:0] $end
    $var wire 32 b" irq_timer [31:0] $end
    $var wire 32 c" irq_ebreak [31:0] $end
    $var wire 32 d" irq_buserror [31:0] $end
    $var wire 32 e" irqregs_offset [31:0] $end
    $var wire 32 e" regfile_size [31:0] $end
    $var wire 32 f" regindex_bits [31:0] $end
    $var wire 1 [" WITH_PCPI [0:0] $end
    $var wire 36 g" TRACE_BRANCH [35:0] $end
    $var wire 36 i" TRACE_ADDR [35:0] $end
    $var wire 36 k" TRACE_IRQ [35:0] $end
    $var wire 64 - count_cycle [63:0] $end
    $var wire 64 / count_instr [63:0] $end
    $var wire 32 1 reg_pc [31:0] $end
    $var wire 32 2 reg_next_pc [31:0] $end
    $var wire 32 # reg_op1 [31:0] $end
    $var wire 32 $ reg_op2 [31:0] $end
    $var wire 32 3 reg_out [31:0] $end
    $var wire 5 4 reg_sh [4:0] $end
    $var wire 32 5 next_insn_opcode [31:0] $end
    $var wire 32 6 dbg_insn_opcode [31:0] $end
    $var wire 32 7 dbg_insn_addr [31:0] $end
    $var wire 1 <" dbg_mem_valid $end
    $var wire 1 A" dbg_mem_instr $end
    $var wire 1 Z" dbg_mem_ready $end
    $var wire 32 & dbg_mem_addr [31:0] $end
    $var wire 32 ' dbg_mem_wdata [31:0] $end
    $var wire 4 B" dbg_mem_wstrb [3:0] $end
    $var wire 32 `" dbg_mem_rdata [31:0] $end
    $var wire 32 8 next_pc [31:0] $end
    $var wire 1 9 irq_delay $end
    $var wire 1 : irq_active $end
    $var wire 32 ; irq_mask [31:0] $end
    $var wire 32 < irq_pending [31:0] $end
    $var wire 32 = timer [31:0] $end
    $var wire 32 > cpuregs[0] [31:0] $end
    $var wire 32 ? cpuregs[1] [31:0] $end
    $var wire 32 @ cpuregs[2] [31:0] $end
    $var wire 32 A cpuregs[3] [31:0] $end
    $var wire 32 B cpuregs[4] [31:0] $end
    $var wire 32 C cpuregs[5] [31:0] $end
    $var wire 32 D cpuregs[6] [31:0] $end
    $var wire 32 E cpuregs[7] [31:0] $end
    $var wire 32 F cpuregs[8] [31:0] $end
    $var wire 32 G cpuregs[9] [31:0] $end
    $var wire 32 H cpuregs[10] [31:0] $end
    $var wire 32 I cpuregs[11] [31:0] $end
    $var wire 32 J cpuregs[12] [31:0] $end
    $var wire 32 K cpuregs[13] [31:0] $end
    $var wire 32 L cpuregs[14] [31:0] $end
    $var wire 32 M cpuregs[15] [31:0] $end
    $var wire 32 N cpuregs[16] [31:0] $end
    $var wire 32 O cpuregs[17] [31:0] $end
    $var wire 32 P cpuregs[18] [31:0] $end
    $var wire 32 Q cpuregs[19] [31:0] $end
    $var wire 32 R cpuregs[20] [31:0] $end
    $var wire 32 S cpuregs[21] [31:0] $end
    $var wire 32 T cpuregs[22] [31:0] $end
    $var wire 32 U cpuregs[23] [31:0] $end
    $var wire 32 V cpuregs[24] [31:0] $end
    $var wire 32 W cpuregs[25] [31:0] $end
    $var wire 32 X cpuregs[26] [31:0] $end
    $var wire 32 Y cpuregs[27] [31:0] $end
    $var wire 32 Z cpuregs[28] [31:0] $end
    $var wire 32 [ cpuregs[29] [31:0] $end
    $var wire 32 \ cpuregs[30] [31:0] $end
    $var wire 32 ] cpuregs[31] [31:0] $end
    $var wire 32 m" i [31:0] $end
    $var wire 1 n" pcpi_mul_wr $end
    $var wire 32 ]" pcpi_mul_rd [31:0] $end
    $var wire 1 n" pcpi_mul_wait $end
    $var wire 1 n" pcpi_mul_ready $end
    $var wire 1 n" pcpi_div_wr $end
    $var wire 32 ]" pcpi_div_rd [31:0] $end
    $var wire 1 n" pcpi_div_wait $end
    $var wire 1 n" pcpi_div_ready $end
    $var wire 1 8" pcpi_int_wr $end
    $var wire 32 9" pcpi_int_rd [31:0] $end
    $var wire 1 5" pcpi_int_wait $end
    $var wire 1 6" pcpi_int_ready $end
    $var wire 2 D" mem_state [1:0] $end
    $var wire 2 ^ mem_wordsize [1:0] $end
    $var wire 32 _ mem_rdata_word [31:0] $end
    $var wire 32 E" mem_rdata_q [31:0] $end
    $var wire 1 F" mem_do_prefetch $end
    $var wire 1 G" mem_do_rinst $end
    $var wire 1 H" mem_do_rdata $end
    $var wire 1 I" mem_do_wdata $end
    $var wire 1 <" mem_xfer $end
    $var wire 1 J" mem_la_secondword $end
    $var wire 1 ` mem_la_firstword_reg $end
    $var wire 1 a last_mem_valid $end
    $var wire 1 n" mem_la_firstword $end
    $var wire 1 n" mem_la_firstword_xfer $end
    $var wire 1 b prefetched_high_word $end
    $var wire 1 X" clear_prefetched_high_word $end
    $var wire 16 o" mem_16bit_buffer [15:0] $end
    $var wire 32 K" mem_rdata_latched_noshuffle [31:0] $end
    $var wire 32 K" mem_rdata_latched [31:0] $end
    $var wire 1 n" mem_la_use_prefetched_high_word $end
    $var wire 1 L" mem_busy $end
    $var wire 1 Y" mem_done $end
    $var wire 1 c instr_lui $end
    $var wire 1 d instr_auipc $end
    $var wire 1 e instr_jal $end
    $var wire 1 f instr_jalr $end
    $var wire 1 g instr_beq $end
    $var wire 1 h instr_bne $end
    $var wire 1 i instr_blt $end
    $var wire 1 j instr_bge $end
    $var wire 1 k instr_bltu $end
    $var wire 1 l instr_bgeu $end
    $var wire 1 m instr_lb $end
    $var wire 1 n instr_lh $end
    $var wire 1 o instr_lw $end
    $var wire 1 p instr_lbu $end
    $var wire 1 q instr_lhu $end
    $var wire 1 r instr_sb $end
    $var wire 1 s instr_sh $end
    $var wire 1 t instr_sw $end
    $var wire 1 u instr_addi $end
    $var wire 1 v instr_slti $end
    $var wire 1 w instr_sltiu $end
    $var wire 1 x instr_xori $end
    $var wire 1 y instr_ori $end
    $var wire 1 z instr_andi $end
    $var wire 1 { instr_slli $end
    $var wire 1 | instr_srli $end
    $var wire 1 } instr_srai $end
    $var wire 1 ~ instr_add $end
    $var wire 1 !! instr_sub $end
    $var wire 1 "! instr_sll $end
    $var wire 1 #! instr_slt $end
    $var wire 1 $! instr_sltu $end
    $var wire 1 %! instr_xor $end
    $var wire 1 &! instr_srl $end
    $var wire 1 '! instr_sra $end
    $var wire 1 (! instr_or $end
    $var wire 1 )! instr_and $end
    $var wire 1 *! instr_rdcycle $end
    $var wire 1 +! instr_rdcycleh $end
    $var wire 1 ,! instr_rdinstr $end
    $var wire 1 -! instr_rdinstrh $end
    $var wire 1 .! instr_ecall_ebreak $end
    $var wire 1 /! instr_fence $end
    $var wire 1 0! instr_getq $end
    $var wire 1 1! instr_setq $end
    $var wire 1 2! instr_retirq $end
    $var wire 1 3! instr_maskirq $end
    $var wire 1 4! instr_waitirq $end
    $var wire 1 5! instr_timer $end
    $var wire 1 6! instr_trap $end
    $var wire 5 7! decoded_rd [4:0] $end
    $var wire 5 8! decoded_rs1 [4:0] $end
    $var wire 5 9! decoded_rs2 [4:0] $end
    $var wire 32 :! decoded_imm [31:0] $end
    $var wire 32 ;! decoded_imm_j [31:0] $end
    $var wire 1 M" decoder_trigger $end
    $var wire 1 <! decoder_trigger_q $end
    $var wire 1 N" decoder_pseudo_trigger $end
    $var wire 1 =! decoder_pseudo_trigger_q $end
    $var wire 1 2! compressed_instr $end
    $var wire 1 >! is_lui_auipc_jal $end
    $var wire 1 ?! is_lb_lh_lw_lbu_lhu $end
    $var wire 1 @! is_slli_srli_srai $end
    $var wire 1 A! is_jalr_addi_slti_sltiu_xori_ori_andi $end
    $var wire 1 B! is_sb_sh_sw $end
    $var wire 1 C! is_sll_srl_sra $end
    $var wire 1 D! is_lui_auipc_jal_jalr_addi_add_sub $end
    $var wire 1 E! is_slti_blt_slt $end
    $var wire 1 F! is_sltiu_bltu_sltu $end
    $var wire 1 G! is_beq_bne_blt_bge_bltu_bgeu $end
    $var wire 1 H! is_lbu_lhu_lw $end
    $var wire 1 I! is_alu_reg_imm $end
    $var wire 1 J! is_alu_reg_reg $end
    $var wire 1 K! is_compare $end
    $var wire 1 L! is_rdcycle_rdcycleh_rdinstr_rdinstrh $end
    $var wire 64 M! new_ascii_instr [63:0] $end
    $var wire 64 O! dbg_ascii_instr [63:0] $end
    $var wire 32 Q! dbg_insn_imm [31:0] $end
    $var wire 5 R! dbg_insn_rs1 [4:0] $end
    $var wire 5 S! dbg_insn_rs2 [4:0] $end
    $var wire 5 T! dbg_insn_rd [4:0] $end
    $var wire 32 U! dbg_rs1val [31:0] $end
    $var wire 32 V! dbg_rs2val [31:0] $end
    $var wire 1 W! dbg_rs1val_valid $end
    $var wire 1 X! dbg_rs2val_valid $end
    $var wire 64 Y! q_ascii_instr [63:0] $end
    $var wire 32 [! q_insn_imm [31:0] $end
    $var wire 32 \! q_insn_opcode [31:0] $end
    $var wire 5 ]! q_insn_rs1 [4:0] $end
    $var wire 5 ^! q_insn_rs2 [4:0] $end
    $var wire 5 _! q_insn_rd [4:0] $end
    $var wire 1 `! dbg_next $end
    $var wire 1 O" launch_next_insn $end
    $var wire 1 a! dbg_valid_insn $end
    $var wire 64 b! cached_ascii_instr [63:0] $end
    $var wire 32 d! cached_insn_imm [31:0] $end
    $var wire 32 e! cached_insn_opcode [31:0] $end
    $var wire 5 f! cached_insn_rs1 [4:0] $end
    $var wire 5 g! cached_insn_rs2 [4:0] $end
    $var wire 5 h! cached_insn_rd [4:0] $end
    $var wire 8 p" cpu_state_trap [7:0] $end
    $var wire 8 q" cpu_state_fetch [7:0] $end
    $var wire 8 r" cpu_state_ld_rs1 [7:0] $end
    $var wire 8 s" cpu_state_ld_rs2 [7:0] $end
    $var wire 8 t" cpu_state_exec [7:0] $end
    $var wire 8 u" cpu_state_shift [7:0] $end
    $var wire 8 v" cpu_state_stmem [7:0] $end
    $var wire 8 w" cpu_state_ldmem [7:0] $end
    $var wire 8 i! cpu_state [7:0] $end
    $var wire 2 j! irq_state [1:0] $end
    $var wire 128 k! dbg_ascii_state [127:0] $end
    $var wire 1 o! set_mem_do_rinst $end
    $var wire 1 p! set_mem_do_rdata $end
    $var wire 1 q! set_mem_do_wdata $end
    $var wire 1 r! latched_store $end
    $var wire 1 s! latched_stalu $end
    $var wire 1 t! latched_branch $end
    $var wire 1 u! latched_compr $end
    $var wire 1 v! latched_trace $end
    $var wire 1 w! latched_is_lu $end
    $var wire 1 x! latched_is_lh $end
    $var wire 1 y! latched_is_lb $end
    $var wire 5 z! latched_rd [4:0] $end
    $var wire 32 {! current_pc [31:0] $end
    $var wire 4 |! pcpi_timeout_counter [3:0] $end
    $var wire 1 }! pcpi_timeout $end
    $var wire 32 ~! next_irq_pending [31:0] $end
    $var wire 1 !" do_waitirq $end
    $var wire 32 "" alu_out [31:0] $end
    $var wire 32 #" alu_out_q [31:0] $end
    $var wire 1 $" alu_out_0 $end
    $var wire 1 %" alu_out_0_q $end
    $var wire 1 &" alu_wait $end
    $var wire 1 '" alu_wait_2 $end
    $var wire 32 (" alu_add_sub [31:0] $end
    $var wire 32 )" alu_shl [31:0] $end
    $var wire 32 *" alu_shr [31:0] $end
    $var wire 1 +" alu_eq $end
    $var wire 1 ," alu_ltu $end
    $var wire 1 -" alu_lts $end
    $var wire 1 ." clear_prefetched_high_word_q $end
    $var wire 1 /" cpuregs_write $end
    $var wire 32 0" cpuregs_wrdata [31:0] $end
    $var wire 32 1" cpuregs_rs1 [31:0] $end
    $var wire 32 2" cpuregs_rs2 [31:0] $end
    $var wire 5 x" decoded_rs [4:0] $end
   $upscope $end
  $upscope $end
 $upscope $end
$enddefinitions $end


#0
b00000000000000000000000000000000 #
b00000000000000000000000000000000 $
b00000000000000000000000000000000 %
b00000000000000000000000000000000 &
b00000000000000000000000000000000 '
b00000000000000000000000000000000 (
b00000000000000000000000000000000 )
0*
b000000000000000000000000000000000000 +
b0000000000000000000000000000000000000000000000000000000000000000 -
b0000000000000000000000000000000000000000000000000000000000000000 /
b00000000000000000000000000000000 1
b00000000000000000000000000000000 2
b00000000000000000000000000000000 3
b00000 4
b00000000000000000000000000000000 5
b00000000000000000000000000000000 6
b00000000000000000000000000000000 7
b00000000000000000000000000000000 8
09
0:
b00000000000000000000000000000000 ;
b00000000000000000000000000000000 <
b00000000000000000000000000000000 =
b00000000000000000000000000000000 >
b00000000000000000000000000000000 ?
b00000000000000000000000000000000 @
b00000000000000000000000000000000 A
b00000000000000000000000000000000 B
b00000000000000000000000000000000 C
b00000000000000000000000000000000 D
b00000000000000000000000000000000 E
b00000000000000000000000000000000 F
b00000000000000000000000000000000 G
b00000000000000000000000000000000 H
b00000000000000000000000000000000 I
b00000000000000000000000000000000 J
b00000000000000000000000000000000 K
b00000000000000000000000000000000 L
b00000000000000000000000000000000 M
b00000000000000000000000000000000 N
b00000000000000000000000000000000 O
b00000000000000000000000000000000 P
b00000000000000000000000000000000 Q
b00000000000000000000000000000000 R
b00000000000000000000000000000000 S
b00000000000000000000000000000000 T
b00000000000000000000000000000000 U
b00000000000000000000000000000000 V
b00000000000000000000000000000000 W
b00000000000000000000000000000000 X
b00000000000000000000000000000000 Y
b00000000000000000000000000000000 Z
b00000000000000000000000000000000 [
b00000000000000000000000000000000 \
b00000000000000000000000000000000 ]
b00 ^
b00000000000000000000000000000000 _
0`
0a
0b
0c
0d
0e
0f
0g
0h
0i
0j
0k
0l
0m
0n
0o
0p
0q
0r
0s
0t
0u
0v
0w
0x
0y
0z
0{
0|
0}
0~
0!!
0"!
0#!
0$!
0%!
0&!
0'!
0(!
0)!
0*!
0+!
0,!
0-!
0.!
0/!
00!
01!
02!
03!
04!
05!
16!
b00000 7!
b00000 8!
b00000 9!
b00000000000000000000000000000000 :!
b00000000000000000000000000000000 ;!
0<!
0=!
0>!
0?!
0@!
0A!
0B!
0C!
0D!
0E!
0F!
0G!
0H!
0I!
0J!
0K!
0L!
b0000000000000000000000000000000000000000000000000000000000000000 M!
b0000000000000000000000000000000000000000000000000000000000000000 O!
b00000000000000000000000000000000 Q!
b00000 R!
b00000 S!
b00000 T!
b00000000000000000000000000000000 U!
b00000000000000000000000000000000 V!
0W!
0X!
b0000000000000000000000000000000000000000000000000000000000000000 Y!
b00000000000000000000000000000000 [!
b00000000000000000000000000000000 \!
b00000 ]!
b00000 ^!
b00000 _!
0`!
0a!
b0000000000000000000000000000000000000000000000000000000000000000 b!
b00000000000000000000000000000000 d!
b00000000000000000000000000000000 e!
b00000 f!
b00000 g!
b00000 h!
b00000000 i!
b00 j!
b00000000000000000000000000000000000000000000000000000000000000000000000000000000000000000000000000000000000000000000000000000000 k!
0o!
0p!
0q!
0r!
0s!
0t!
0u!
0v!
0w!
0x!
0y!
b00000 z!
b00000000000000000000000000000000 {!
b0000 |!
0}!
b00000000000000000000000000000000 ~!
0!"
b00000000000000000000000000000000 ""
b00000000000000000000000000000000 #"
0$"
0%"
0&"
0'"
b00000000000000000000000000000000 ("
b00000000000000000000000000000000 )"
b00000000000000000000000000000000 *"
1+"
0,"
0-"
0."
0/"
b00000000000000000000000000000000 0"
b00000000000000000000000000000000 1"
b00000000000000000000000000000000 2"
03"
b00000000000000000000000000000000 4"
05"
06"
b00000000000000000000000000000000 7"
08"
b00000000000000000000000000000000 9"
0:"
b00000000000000000000000000000000 ;"
0<"
b0000000 ="
b000 >"
0?"
0@"
0A"
b0000 B"
b1111 C"
b00 D"
b00000000000000000000000000000000 E"
0F"
0G"
0H"
0I"
0J"
b00000000000000000000000000000000 K"
0L"
0M"
0N"
0O"
1P"
0Q"
0R"
b00000000000000000000000000000000 S"
b00000000000000000000000000000000 T"
0U"
0V"
b00000000000000000000000000000000 W"
0X"
0Y"
1Z"
1["
0\"
b00000000000000000000000000000000 ]"
b11111111111111111111111111111111 ^"
b00000000000000000000000000010000 _"
b00000000000000000000000000000000 `"
b00000000000000000000000000000000 a"
b00000000000000000000000000000000 b"
b00000000000000000000000000000001 c"
b00000000000000000000000000000010 d"
b00000000000000000000000000100000 e"
b00000000000000000000000000000101 f"
b000100000000000000000000000000000000 g"
b001000000000000000000000000000000000 i"
b100000000000000000000000000000000000 k"
b00000000000000000000000000000000 m"
0n"
b0000000000000000 o"
b10000000 p"
b01000000 q"
b00100000 r"
b00010000 s"
b00001000 t"
b00000100 u"
b00000010 v"
b00000001 w"
b00000 x"
#1
0P"
#2
b11111111111111111111111111111111 ;
b01000000 i!
b00000000000000000000000000000000000000000000000000000000000000000000000000000000000000000110011001100101011101000110001101101000 k!
b1111 |!
1P"
#3
0P"
#4
1P"
#5
0P"
#6
1P"
#7
0P"
#8
1P"
#9
0P"
#10
1P"
#11
0P"
#12
1P"
#13
0P"
#14
1P"
#15
0P"
#16
1P"
#17
0P"
#18
1P"
#19
0P"
#20
1P"
#21
0P"
1Q"
#22
b0000000000000000000000000000000000000000000000000000000000000001 -
1G"
1L"
1P"
1U"
#23
0P"
#24
b0000000000000000000000000000000000000000000000000000000000000010 -
1<"
1A"
b01 D"
1P"
0U"
1Y"
#25
0P"
#26
b0000000000000000000000000000000000000000000000000000000000000011 -
0<"
b00 D"
0G"
0L"
1M"
1O"
1P"
0Y"
#27
0P"
#28
b0000000000000000000000000000000000000000000000000000000000000100 -
b0000000000000000000000000000000000000000000000000000000000000001 /
b00000000000000000000000000000100 2
b00000000000000000000000000000100 8
1<!
1`!
1a!
b00100000 i!
b00000000000000000000000000000000000000000000000000000000000000000000000000000000011011000110010001011111011100100111001100110001 k!
1F"
1L"
0M"
0O"
1P"
1U"
b00000000000000000000000000000100 W"
#29
0P"
#30
b00000000000000000000000000000100 &
b0000000000000000000000000000000000000000000000000000000000000101 -
0<!
1W!
1X!
0`!
1:"
1<"
b01 D"
1P"
0U"
#31
0P"
#32
b0000000000000000000000000000000000000000000000000000000000000110 -
b1110 |!
0<"
b11 D"
1P"
#33
0P"
#34
b0000000000000000000000000000000000000000000000000000000000000111 -
b1101 |!
1P"
#35
0P"
#36
b0000000000000000000000000000000000000000000000000000000000001000 -
b1100 |!
1P"
#37
0P"
#38
b0000000000000000000000000000000000000000000000000000000000001001 -
b1011 |!
1P"
#39
0P"
#40
b0000000000000000000000000000000000000000000000000000000000001010 -
b1010 |!
1P"
#41
0P"
#42
b0000000000000000000000000000000000000000000000000000000000001011 -
b1001 |!
1P"
#43
0P"
#44
b0000000000000000000000000000000000000000000000000000000000001100 -
b1000 |!
1P"
#45
0P"
#46
b0000000000000000000000000000000000000000000000000000000000001101 -
b0111 |!
1P"
#47
0P"
#48
b0000000000000000000000000000000000000000000000000000000000001110 -
b0110 |!
1P"
#49
0P"
#50
b0000000000000000000000000000000000000000000000000000000000001111 -
b0101 |!
1P"
#51
0P"
#52
b0000000000000000000000000000000000000000000000000000000000010000 -
b0100 |!
1P"
#53
0P"
#54
b0000000000000000000000000000000000000000000000000000000000010001 -
b0011 |!
1P"
#55
0P"
#56
b0000000000000000000000000000000000000000000000000000000000010010 -
b0010 |!
1P"
#57
0P"
#58
b0000000000000000000000000000000000000000000000000000000000010011 -
b0001 |!
1P"
#59
0P"
#60
b0000000000000000000000000000000000000000000000000000000000010100 -
b0000 |!
1P"
#61
0P"
#62
b0000000000000000000000000000000000000000000000000000000000010101 -
1}!
1P"
#63
0P"
#64
b0000000000000000000000000000000000000000000000000000000000010110 -
b10000000 i!
b00000000000000000000000000000000000000000000000000000000000000000000000000000000000000000000000001110100011100100110000101110000 k!
0:"
1P"
#65
0P"
#66
b0000000000000000000000000000000000000000000000000000000000010111 -
b1111 |!
1P"
1R"
#67
0P"
#68
b0000000000000000000000000000000000000000000000000000000000011000 -
0a!
0}!
1P"
#69
0P"
#70
b0000000000000000000000000000000000000000000000000000000000011001 -
1P"
#71
0P"
#72
b0000000000000000000000000000000000000000000000000000000000011010 -
1P"
#73
0P"
#74
b0000000000000000000000000000000000000000000000000000000000011011 -
1P"
#75
0P"
#76
b0000000000000000000000000000000000000000000000000000000000011100 -
1P"
#77
0P"
#78
b0000000000000000000000000000000000000000000000000000000000011101 -
1P"
#79
0P"
#80
b0000000000000000000000000000000000000000000000000000000000011110 -
1P"
#81
0P"
#82
b0000000000000000000000000000000000000000000000000000000000011111 -
1P"
#83
0P"
#84
b0000000000000000000000000000000000000000000000000000000000100000 -
1P"
#85
0P"
#86
b0000000000000000000000000000000000000000000000000000000000100001 -
1P"
#87
0P"
#88
b0000000000000000000000000000000000000000000000000000000000100010 -
1P"
#89
0P"
#90
b0000000000000000000000000000000000000000000000000000000000100011 -
1P"
#91
0P"
#92
b0000000000000000000000000000000000000000000000000000000000100100 -
1P"
#93
0P"
#94
b0000000000000000000000000000000000000000000000000000000000100101 -
1P"
#95
0P"
#96
b0000000000000000000000000000000000000000000000000000000000100110 -
1P"
#97
0P"
#98
b0000000000000000000000000000000000000000000000000000000000100111 -
1P"
#99
0P"
#100
b0000000000000000000000000000000000000000000000000000000000101000 -
1P"
#101
0P"
#102
b0000000000000000000000000000000000000000000000000000000000101001 -
1P"
#103
0P"
#104
b0000000000000000000000000000000000000000000000000000000000101010 -
1P"
#105
0P"
#106
b0000000000000000000000000000000000000000000000000000000000101011 -
1P"
#107
0P"
#108
b0000000000000000000000000000000000000000000000000000000000101100 -
1P"
#109
0P"
#110
b0000000000000000000000000000000000000000000000000000000000101101 -
1P"
#111
0P"
#112
b0000000000000000000000000000000000000000000000000000000000101110 -
1P"
#113
0P"
#114
b0000000000000000000000000000000000000000000000000000000000101111 -
1P"
#115
0P"
#116
b0000000000000000000000000000000000000000000000000000000000110000 -
1P"
#117
0P"
#118
b0000000000000000000000000000000000000000000000000000000000110001 -
1P"
#119
0P"
#120
b0000000000000000000000000000000000000000000000000000000000110010 -
1P"
#121
0P"
#122
b0000000000000000000000000000000000000000000000000000000000110011 -
1P"
#123
0P"
#124
b0000000000000000000000000000000000000000000000000000000000110100 -
1P"
#125
0P"
#126
b0000000000000000000000000000000000000000000000000000000000110101 -
1P"
#127
0P"
#128
b0000000000000000000000000000000000000000000000000000000000110110 -
1P"
#129
0P"
#130
b0000000000000000000000000000000000000000000000000000000000110111 -
1P"
#131
0P"
#132
b0000000000000000000000000000000000000000000000000000000000111000 -
1P"
#133
0P"
#134
b0000000000000000000000000000000000000000000000000000000000111001 -
1P"
#135
0P"
#136
b0000000000000000000000000000000000000000000000000000000000111010 -
1P"
#137
0P"
#138
b0000000000000000000000000000000000000000000000000000000000111011 -
1P"
#139
0P"
#140
b0000000000000000000000000000000000000000000000000000000000111100 -
1P"
#141
0P"
#142
b0000000000000000000000000000000000000000000000000000000000111101 -
1P"
#143
0P"
#144
b0000000000000000000000000000000000000000000000000000000000111110 -
1P"
#145
0P"
#146
b0000000000000000000000000000000000000000000000000000000000111111 -
1P"
#147
0P"
#148
b0000000000000000000000000000000000000000000000000000000001000000 -
1P"
#149
0P"
#150
b0000000000000000000000000000000000000000000000000000000001000001 -
1P"
#151
0P"
#152
b0000000000000000000000000000000000000000000000000000000001000010 -
1P"
#153
0P"
#154
b0000000000000000000000000000000000000000000000000000000001000011 -
1P"
#155
0P"
#156
b0000000000000000000000000000000000000000000000000000000001000100 -
1P"
#157
0P"
#158
b0000000000000000000000000000000000000000000000000000000001000101 -
1P"
#159
0P"
#160
b0000000000000000000000000000000000000000000000000000000001000110 -
1P"
#161
0P"
#162
b0000000000000000000000000000000000000000000000000000000001000111 -
1P"
#163
0P"
#164
b0000000000000000000000000000000000000000000000000000000001001000 -
1P"
#165
0P"
#166
b0000000000000000000000000000000000000000000000000000000001001001 -
1P"
#167
0P"
#168
b0000000000000000000000000000000000000000000000000000000001001010 -
1P"
#169
0P"
#170
b0000000000000000000000000000000000000000000000000000000001001011 -
1P"
#171
0P"
#172
b0000000000000000000000000000000000000000000000000000000001001100 -
1P"
#173
0P"
#174
b0000000000000000000000000000000000000000000000000000000001001101 -
1P"
#175
0P"
#176
b0000000000000000000000000000000000000000000000000000000001001110 -
1P"
#177
0P"
#178
b0000000000000000000000000000000000000000000000000000000001001111 -
1P"
#179
0P"
#180
b0000000000000000000000000000000000000000000000000000000001010000 -
1P"
#181
0P"
#182
b0000000000000000000000000000000000000000000000000000000001010001 -
1P"
#183
0P"
#184
b0000000000000000000000000000000000000000000000000000000001010010 -
1P"
#185
0P"
#186
b0000000000000000000000000000000000000000000000000000000001010011 -
1P"
#187
0P"
#188
b0000000000000000000000000000000000000000000000000000000001010100 -
1P"
#189
0P"
#190
b0000000000000000000000000000000000000000000000000000000001010101 -
1P"
#191
0P"
#192
b0000000000000000000000000000000000000000000000000000000001010110 -
1P"
#193
0P"
#194
b0000000000000000000000000000000000000000000000000000000001010111 -
1P"
#195
0P"
#196
b0000000000000000000000000000000000000000000000000000000001011000 -
1P"
#197
0P"
#198
b0000000000000000000000000000000000000000000000000000000001011001 -
1P"
#199
0P"
#200
b0000000000000000000000000000000000000000000000000000000001011010 -
1P"
#201
0P"
#202
b0000000000000000000000000000000000000000000000000000000001011011 -
1P"
#203
0P"
#204
b0000000000000000000000000000000000000000000000000000000001011100 -
1P"
#205
0P"
#206
b0000000000000000000000000000000000000000000000000000000001011101 -
1P"
#207
0P"
#208
b0000000000000000000000000000000000000000000000000000000001011110 -
1P"
#209
0P"
#210
b0000000000000000000000000000000000000000000000000000000001011111 -
1P"
#211
0P"
#212
b0000000000000000000000000000000000000000000000000000000001100000 -
1P"
#213
0P"
#214
b0000000000000000000000000000000000000000000000000000000001100001 -
1P"
#215
0P"
#216
b0000000000000000000000000000000000000000000000000000000001100010 -
1P"
#217
0P"
#218
b0000000000000000000000000000000000000000000000000000000001100011 -
1P"
#219
0P"
#220
b0000000000000000000000000000000000000000000000000000000001100100 -
1P"
#221
0P"
#222
b0000000000000000000000000000000000000000000000000000000001100101 -
1P"
#223
0P"
